Generates heatbox and scatter plots from a feature matrix. • corplot
…
Correlation heatbox

All samples vs all samples

expr_mat_file <- system.file("extdata" ,"example_data_expr_mat_01.txt" , package = "corplot")
expr_mat <- readr::read_delim(expr_mat_file , delim = "\t")

expr_mat
#> # A tibble: 6,338 x 9
#>    gene_name Control_Rep.A Control_Rep.B Treat1_Rep.A Treat1_Rep.B Treat2_Rep.A
#>    <chr>             <dbl>         <dbl>        <dbl>        <dbl>        <dbl>
#>  1 C1_00010…          1             0            1            2.81         5.13
#>  2 C1_00020…          9.65          9.32         9.15         9.32        10.9 
#>  3 C1_00030…          5.46          4.70         4.64         5.36         6.15
#>  4 C1_00040…         10.9          10.5         11.4         12.2         11.3 
#>  5 C1_00050…          0             1            1            5.88         5.43
#>  6 C1_00060…         13.4          13.0         12.9         13.1         13.2 
#>  7 C1_00070…         12.9          12.7         12.6         12.2         11.2 
#>  8 C1_00080…         10.4           9.81        10.2          9.96        10.4 
#>  9 C1_00090…          7.33          6.61         6.13         6.88         7   
#> 10 C1_00100…         10.0          10.1         10.9         10.9         10.8 
#> # … with 6,328 more rows, and 3 more variables: Treat2_Rep.B <dbl>,
#> #   Treat3_Rep.A <dbl>, Treat3_Rep.B <dbl>

## calculate  pairwise correlation 
cor_tbl <- corplot::get_pairwise_cor_tbl(expr_mat , var = "gene_name" , method = "pearson")

cor_tbl
#> # A tibble: 64 x 3
#>    var1          var2           corr
#>    <chr>         <chr>         <dbl>
#>  1 Control_Rep.A Control_Rep.A  1   
#>  2 Control_Rep.B Control_Rep.A  0.96
#>  3 Treat1_Rep.A  Control_Rep.A  0.93
#>  4 Treat1_Rep.B  Control_Rep.A  0.9 
#>  5 Treat2_Rep.A  Control_Rep.A  0.86
#>  6 Treat2_Rep.B  Control_Rep.A  0.86
#>  7 Treat3_Rep.A  Control_Rep.A  0.91
#>  8 Treat3_Rep.B  Control_Rep.A  0.91
#>  9 Control_Rep.A Control_Rep.B  0.96
#> 10 Control_Rep.B Control_Rep.B  1   
#> # … with 54 more rows
…
